<?xml version="1.0" encoding="UTF-8" standalone="no"?>
<!-- Created with Inkscape (http://www.inkscape.org/) -->

<svg
   xmlns:dc="http://purl.org/dc/elements/1.1/"
   xmlns:cc="http://creativecommons.org/ns#"
   xmlns:rdf="http://www.w3.org/1999/02/22-rdf-syntax-ns#"
   xmlns:svg="http://www.w3.org/2000/svg"
   xmlns="http://www.w3.org/2000/svg"
   xmlns:sodipodi="http://sodipodi.sourceforge.net/DTD/sodipodi-0.dtd"
   xmlns:inkscape="http://www.inkscape.org/namespaces/inkscape"
   width="10cm"
   height="10.4cm"
   viewBox="0 0 354.33071 368.50392"
   id="svg2"
   version="1.1"
   inkscape:version="0.91 r13725"
   sodipodi:docname="libreofficeformat.svg"
   inkscape:export-filename="/media/h4ck3r/GrosDisque/Fichiersdetravail/Projets_Libres/LIVRESENCOURS/manueldumo/images/libreofficeformat.png"
   inkscape:export-xdpi="299.974"
   inkscape:export-ydpi="299.974">
  <defs
     id="defs4" />
  <sodipodi:namedview
     id="base"
     pagecolor="#ffffff"
     bordercolor="#666666"
     borderopacity="1.0"
     inkscape:pageopacity="0.0"
     inkscape:pageshadow="2"
     inkscape:zoom="1.4"
     inkscape:cx="-106.47261"
     inkscape:cy="283.48458"
     inkscape:document-units="px"
     inkscape:current-layer="layer1"
     showgrid="false"
     units="cm"
     inkscape:window-width="1920"
     inkscape:window-height="1029"
     inkscape:window-x="0"
     inkscape:window-y="0"
     inkscape:window-maximized="1"
     borderlayer="true" />
  <metadata
     id="metadata7">
    <rdf:RDF>
      <cc:Work
         rdf:about="">
        <dc:format>image/svg+xml</dc:format>
        <dc:type
           rdf:resource="http://purl.org/dc/dcmitype/StillImage" />
        <dc:title />
      </cc:Work>
    </rdf:RDF>
  </metadata>
  <g
     inkscape:label="Calque 1"
     inkscape:groupmode="layer"
     id="layer1"
     transform="translate(0,-683.85832)">
    <rect
       style="opacity:1;fill:#ffffff;fill-opacity:1;stroke:none;stroke-width:1.5;stroke-linejoin:round;stroke-miterlimit:4;stroke-dasharray:none;stroke-dashoffset:0;stroke-opacity:1"
       id="rect4195"
       width="379.81735"
       height="401.03055"
       x="-15.152288"
       y="668.50427" />
    <rect
       style="opacity:1;fill:#ffffff;fill-opacity:1;stroke:#000000;stroke-width:1.45720017;stroke-linejoin:round;stroke-miterlimit:4;stroke-dasharray:none;stroke-dashoffset:0;stroke-opacity:1"
       id="rect4136"
       width="348.28067"
       height="359.17981"
       x="2.6363754"
       y="689.8006"
       ry="18.9042" />
    <flowRoot
       xml:space="preserve"
       id="flowRoot4892-55"
       style="font-style:normal;font-weight:normal;font-size:40px;line-height:125%;font-family:sans-serif;letter-spacing:0px;word-spacing:0px;fill:#000000;fill-opacity:1;stroke:none;stroke-width:1px;stroke-linecap:butt;stroke-linejoin:miter;stroke-opacity:1"
       transform="matrix(1.0043572,0,0,0.99860273,273.24671,585.92471)"><flowRegion
         id="flowRegion4894-6"><rect
           id="rect4896-0"
           width="281.83258"
           height="64.144684"
           x="-131.31982"
           y="108.24212" /></flowRegion><flowPara
         id="flowPara4898-6"
         style="font-style:italic;font-variant:normal;font-weight:normal;font-stretch:normal;font-size:10px;font-family:sans-serif;-inkscape-font-specification:'sans-serif Italic'">Enregistrer sous</flowPara></flowRoot>    <path
       id="rect4148-3"
       d="m 325.81587,696.36612 c -0.53331,0.54262 -0.52416,1.40656 0.0216,1.93682 l 2.53374,2.46185 -2.44796,2.49065 c -0.53331,0.54262 -0.52332,1.40569 0.0224,1.93595 0.54574,0.53025 1.4138,0.52031 1.94711,-0.0223 l 2.44796,-2.49066 2.64606,2.57099 c 0.54573,0.53025 1.41464,0.51945 1.94795,-0.0232 0.5333,-0.54261 0.5233,-1.40569 -0.0224,-1.93594 l -2.64606,-2.57099 2.61302,-2.6586 c 0.53331,-0.54261 0.52331,-1.40569 -0.0224,-1.93593 -0.54574,-0.53026 -1.41379,-0.52032 -1.9471,0.0223 l -2.61303,2.6586 -2.53374,-2.46186 c -0.54573,-0.53025 -1.41379,-0.52031 -1.94709,0.0223 z"
       style="opacity:1;fill:#000000;fill-opacity:1;stroke:none;stroke-width:3.54330707;stroke-linejoin:round;stroke-miterlimit:4;stroke-dasharray:none;stroke-dashoffset:0;stroke-opacity:1"
       inkscape:connector-curvature="0" />
    <flowRoot
       xml:space="preserve"
       id="flowRoot4317"
       style="font-style:normal;font-weight:normal;font-size:40px;line-height:150%;font-family:sans-serif;letter-spacing:0px;word-spacing:0px;fill:#000000;fill-opacity:1;stroke:none;stroke-width:1px;stroke-linecap:butt;stroke-linejoin:miter;stroke-opacity:1"
       transform="matrix(0.29625015,0,0,0.29625015,-14.619543,750.29013)"><flowRegion
         id="flowRegion4319"><rect
           id="rect4321"
           width="375.71429"
           height="140.00003"
           x="38.57143"
           y="207.26378"
           style="line-height:150%" /></flowRegion><flowPara
         id="flowPara4323"
         style="line-height:160.00000238%;text-align:end;text-anchor:end">Nom du fichier :</flowPara><flowPara
         id="flowPara4329"
         style="line-height:160.00000238%;text-align:end;text-anchor:end">Type :</flowPara></flowRoot>    <text
       xml:space="preserve"
       style="font-style:normal;font-weight:normal;font-size:10.03975582px;line-height:125%;font-family:sans-serif;letter-spacing:0px;word-spacing:0px;fill:#000000;fill-opacity:1;stroke:none;stroke-width:1px;stroke-linecap:butt;stroke-linejoin:miter;stroke-opacity:1"
       x="118.38594"
       y="826.14197"
       id="text4335"
       sodipodi:linespacing="125%"><tspan
         sodipodi:role="line"
         id="tspan4337"
         x="118.38594"
         y="826.14197"
         style="font-style:italic;font-variant:normal;font-weight:normal;font-stretch:normal;font-size:9.34889126px;font-family:sans-serif;-inkscape-font-specification:'sans-serif Italic'">Mon-fichier.docx</tspan></text>
    <rect
       style="opacity:1;fill:none;fill-opacity:1;stroke:#000000;stroke-width:0.69766277;stroke-linejoin:round;stroke-miterlimit:4;stroke-dasharray:none;stroke-dashoffset:0;stroke-opacity:1"
       id="rect4339"
       width="127.92459"
       height="14.949551"
       x="110.96561"
       y="815.42297"
       ry="0" />
    <rect
       style="opacity:1;fill:none;fill-opacity:1;stroke:#000000;stroke-width:1.1219207;stroke-linejoin:round;stroke-miterlimit:4;stroke-dasharray:1.1219207, 1.1219207;stroke-dashoffset:0;stroke-opacity:1"
       id="rect4339-3"
       width="234.73056"
       height="202.95207"
       x="111.63786"
       y="834.00751"
       ry="0" />
    <path
       style="opacity:1;fill:#e6e6e6;fill-opacity:1;stroke:none;stroke-width:1.05200005;stroke-linejoin:round;stroke-miterlimit:4;stroke-dasharray:1.05200005, 1.05200005;stroke-dashoffset:0;stroke-opacity:1"
       d="m 112.24151,842.26653 0,-7.70241 116.79889,0 116.79888,0 0,7.70241 0,7.70241 -116.79888,0 -116.79889,0 0,-7.70241 z"
       id="path4198"
       inkscape:connector-curvature="0" />
    <flowRoot
       xml:space="preserve"
       id="flowRoot4360"
       style="font-style:normal;font-weight:normal;font-size:40px;line-height:125%;font-family:sans-serif;letter-spacing:0px;word-spacing:0px;fill:#000000;fill-opacity:1;stroke:none;stroke-width:1px;stroke-linecap:butt;stroke-linejoin:miter;stroke-opacity:1"
       transform="matrix(0.96588309,0,0,0.96588309,269.19751,461.60523)"><flowRegion
         id="flowRegion4362"><rect
           id="rect4364"
           width="247.14287"
           height="206.42857"
           x="-160.71428"
           y="385.47806" /></flowRegion><flowPara
         id="flowPara4366"
         style="font-size:10px;line-height:160.00000238%">Microsoft Word 2007-2013 XML (.docx) (*.docx)</flowPara><flowPara
         id="flowPara4368"
         style="font-size:10px;line-height:160.00000238%">Texte ODF (.odt) (*.odt)</flowPara><flowPara
         id="flowPara4370"
         style="font-size:10px;line-height:160.00000238%">Modèle de texte ODF (.ott) (*.ott)</flowPara><flowPara
         id="flowPara4372"
         style="font-size:10px;line-height:160.00000238%">Flat XML ODF Text Document (.fodt) (*.fodt)</flowPara><flowPara
         style="font-size:10px;line-height:160.00000238%"
         id="flowPara4396">Texte Unified Office Format (.uot) (*.uot)</flowPara><flowPara
         style="font-size:10px;line-height:160.00000238%"
         id="flowPara4398">Microsoft Word 2007-2013 XML (.docx) (*.docx)</flowPara><flowPara
         style="font-size:10px;line-height:160.00000238%"
         id="flowPara4400">Microsoft Word 2003 XML (.xml) (*.xml)</flowPara><flowPara
         style="font-size:10px;line-height:160.00000238%"
         id="flowPara4402">Microsoft Word 97-2003 (.doc) (*.doc)</flowPara><flowPara
         style="font-size:10px;line-height:160.00000238%"
         id="flowPara4404">Modèle Microsoft Word 97-2003 (.dot) (*.dot)</flowPara><flowPara
         style="font-size:10px;line-height:160.00000238%"
         id="flowPara4406">DocBook (.xml) (*.xml)</flowPara><flowPara
         style="font-size:10px;line-height:160.00000238%"
         id="flowPara4408">Document HTML (Writer) (.html) (*.html)</flowPara><flowPara
         style="font-size:10px;line-height:160.00000238%"
         id="flowPara4410">Rich Text (.rtf) (*.rtf)</flowPara><flowPara
         style="font-size:10px;line-height:160.00000238%"
         id="flowPara4196">Texte (.txt) (*.txt)</flowPara><flowPara
         style="font-size:10px;line-height:160.00000238%"
         id="flowPara4412">Texte - Choisir l'encodage (.txt) (*.txt)</flowPara><flowPara
         style="font-size:10px;line-height:160.00000238%"
         id="flowPara4414">Texte Office Open XML (.docx) (*.docx)</flowPara><flowPara
         id="flowPara4374"
         style="font-size:10px;line-height:160.00000238%" /><flowPara
         id="flowPara4376"
         style="font-size:10px;line-height:160.00000238%" /><flowPara
         id="flowPara4378"
         style="font-size:10px;line-height:160.00000238%" /><flowPara
         id="flowPara4380"
         style="font-size:10px;line-height:160.00000238%" /><flowPara
         id="flowPara4382"
         style="font-size:10px;line-height:160.00000238%" /><flowPara
         id="flowPara4384"
         style="font-size:10px;line-height:160.00000238%" /><flowPara
         id="flowPara4386"
         style="font-size:10px;line-height:160.00000238%" /><flowPara
         id="flowPara4388"
         style="font-size:10px;line-height:160.00000238%" /><flowPara
         id="flowPara4390"
         style="font-size:10px;line-height:160.00000238%" /><flowPara
         id="flowPara4392"
         style="font-size:10px;line-height:160.00000238%" /><flowPara
         id="flowPara4394"
         style="font-size:10px;line-height:160.00000238%" /></flowRoot>    <path
       style="fill:none;fill-rule:evenodd;stroke:#000000;stroke-width:1.05200005;stroke-linecap:butt;stroke-linejoin:miter;stroke-miterlimit:4;stroke-dasharray:1.05200005, 2.10400009;stroke-dashoffset:0;stroke-opacity:1"
       d="m 111.25162,849.43642 234.75588,0"
       id="path4433"
       inkscape:connector-curvature="0" />
    <path
       style="opacity:1;fill:#e6e6e6;fill-opacity:1;stroke:none;stroke-width:1.05200005;stroke-linejoin:round;stroke-miterlimit:4;stroke-dasharray:1.05200005, 2.10400009;stroke-dashoffset:0;stroke-opacity:1"
       d="m 3.4782667,759.98079 0,-50.07505 173.2142833,0 173.21429,0 0,50.07505 0,50.07505 -173.21429,0 -173.2142833,0 0,-50.07505 z"
       id="path4219"
       inkscape:connector-curvature="0" />
    <flowRoot
       xml:space="preserve"
       id="flowRoot4277"
       style="font-style:normal;font-weight:normal;font-size:8.76133537px;line-height:125%;font-family:sans-serif;letter-spacing:0px;word-spacing:0px;fill:#000000;fill-opacity:1;stroke:none;stroke-width:1px;stroke-linecap:butt;stroke-linejoin:miter;stroke-opacity:1"
       transform="translate(3.9285747,20.92857)"><flowRegion
         id="flowRegion4279"><rect
           id="rect4281"
           width="92.306931"
           height="96.531151"
           x="10.208544"
           y="693.22321" /></flowRegion><flowPara
         id="flowPara4283"
         style="font-style:normal;font-variant:normal;font-weight:bold;font-stretch:normal;line-height:150%;font-family:sans-serif;-inkscape-font-specification:'sans-serif Bold'">Emplacements</flowPara><flowPara
         id="flowPara4287"
         style="line-height:150%">   Poste de travail</flowPara><flowPara
         id="flowPara4289"
         style="line-height:150%">   Dossier personnel</flowPara><flowPara
         id="flowPara4297"
         style="line-height:150%">   Bureau</flowPara><flowPara
         id="flowPara4299"
         style="line-height:150%">   Documents</flowPara><flowPara
         id="flowPara4301"
         style="line-height:150%">   Images</flowPara><flowPara
         id="flowPara4303"
         style="line-height:150%">   Téléchargements</flowPara><flowPara
         id="flowPara4291"
         style="line-height:150%" /><flowPara
         id="flowPara4293"
         style="line-height:150%" /><flowPara
         id="flowPara4295"
         style="line-height:150%" /></flowRoot>    <rect
       style="opacity:1;fill:none;fill-opacity:1;stroke:#000000;stroke-width:0.93091887;stroke-linejoin:round;stroke-miterlimit:4;stroke-dasharray:none;stroke-dashoffset:0;stroke-opacity:1"
       id="rect4307"
       width="231.49765"
       height="87.211937"
       x="114.84908"
       y="717.33344"
       ry="0" />
    <flowRoot
       xml:space="preserve"
       id="flowRoot4309"
       style="font-style:normal;font-weight:normal;font-size:13.06755257px;line-height:125%;font-family:sans-serif;letter-spacing:0px;word-spacing:0px;fill:#000000;fill-opacity:1;stroke:none;stroke-width:1px;stroke-linecap:butt;stroke-linejoin:miter;stroke-opacity:1"
       transform="matrix(0.67401179,0,0,0.67401179,15.341561,206.96897)"><flowRegion
         id="flowRegion4311"><rect
           id="rect4313"
           width="293.22333"
           height="22.450836"
           x="162.64328"
           y="759.09436" /></flowRegion><flowPara
         id="flowPara4315">Nom                  Modifié le                  Type</flowPara></flowRoot>  </g>
</svg>
